// Server Lists
//
Auth
{
	192.168.13.221:27005
	192.168.13.221:27006
//	half-life.east.won.net:7002 
//	half-life.west.won.net:7002
}

Master
{
	192.168.13.221:27007
	192.168.13.221:27008
//	half-life.east.won.net:27010 
//	half-life.west.won.net:27010
}

Titan
{
	192.168.13.221:27009
	192.168.13.221:27010
//	half-life.east.won.net:6003
//	half-life.west.won.net:6003
}

Banned
{
}
