"Friends/SubPanelSelectLoginOption.res"
{
	"CreateUser"
	{
		"ControlName"		"RadioButton"
		"fieldName"		"CreateUser"
		"xpos"		"146"
		"ypos"		"143"
		"wide"		"180"
		"tall"		"24"
		"autoResize"		"0"
		"pinCorner"		"0"
		"visible"		"1"
		"enabled"		"1"
		"tabPosition"		"0"
		"labelText"		"&Create new user"
		"textAlignment"		"west"
		"dulltext"		"0"
		"brighttext"		"0"
		"Default"		"0"
		"SubTabPosition"		"0"
	}
	"ExistingUser"
	{
		"ControlName"		"RadioButton"
		"fieldName"		"ExistingUser"
		"xpos"		"146"
		"ypos"		"167"
		"wide"		"180"
		"tall"		"24"
		"autoResize"		"0"
		"pinCorner"		"0"
		"visible"		"1"
		"enabled"		"1"
		"tabPosition"		"0"
		"labelText"		"&Login as existing user"
		"textAlignment"		"west"
		"dulltext"		"0"
		"brighttext"		"0"
		"Default"		"0"
		"SubTabPosition"		"0"
	}
	"InfoText"
	{
		"ControlName"		"Label"
		"fieldName"		"InfoText"
		"xpos"		"30"
		"ypos"		"19"
		"wide"		"64"
		"tall"		"24"
		"autoResize"		"0"
		"pinCorner"		"0"
		"visible"		"1"
		"enabled"		"1"
		"tabPosition"		"0"
		"labelText"		"Info"
		"textAlignment"		"west"
		"dulltext"		"0"
		"brighttext"		"0"
	}
}
