"Friends/SubPanelCreateUser2.res"
{
	"LoginIDEdit"
	{
		"ControlName"		"TextEntry"
		"fieldName"		"LoginIDEdit"
		"xpos"		"149"
		"ypos"		"57"
		"wide"		"240"
		"tall"		"20"
		"autoResize"		"0"
		"pinCorner"		"0"
		"visible"		"1"
		"enabled"		"1"
		"tabPosition"		"2"
		"textHidden"		"0"
		"editable"		"1"
		"maxchars"		"-1"
		"NumericInputOnly"		"0"
	}
	"FirstNameEdit"
	{
		"ControlName"		"TextEntry"
		"fieldName"		"FirstNameEdit"
		"xpos"		"139"
		"ypos"		"99"
		"wide"		"240"
		"tall"		"20"
		"autoResize"		"0"
		"pinCorner"		"0"
		"visible"		"1"
		"enabled"		"1"
		"tabPosition"		"3"
		"textHidden"		"0"
		"editable"		"1"
		"maxchars"		"-1"
		"NumericInputOnly"		"0"
	}
	"LastNameEdit"
	{
		"ControlName"		"TextEntry"
		"fieldName"		"LastNameEdit"
		"xpos"		"136"
		"ypos"		"152"
		"wide"		"240"
		"tall"		"20"
		"autoResize"		"0"
		"pinCorner"		"0"
		"visible"		"1"
		"enabled"		"1"
		"tabPosition"		"4"
		"textHidden"		"0"
		"editable"		"1"
		"maxchars"		"-1"
		"NumericInputOnly"		"0"
	}
	"PasswordEdit"
	{
		"ControlName"		"TextEntry"
		"fieldName"		"PasswordEdit"
		"xpos"		"139"
		"ypos"		"201"
		"wide"		"240"
		"tall"		"20"
		"autoResize"		"0"
		"pinCorner"		"0"
		"visible"		"1"
		"enabled"		"1"
		"tabPosition"		"1"
		"textHidden"		"1"
		"editable"		"1"
		"maxchars"		"-1"
		"NumericInputOnly"		"0"
	}
	"PasswordRepeatEdit"
	{
		"ControlName"		"TextEntry"
		"fieldName"		"PasswordRepeatEdit"
		"xpos"		"143"
		"ypos"		"250"
		"wide"		"240"
		"tall"		"20"
		"autoResize"		"0"
		"pinCorner"		"0"
		"visible"		"1"
		"enabled"		"1"
		"tabPosition"		"1"
		"textHidden"		"1"
		"editable"		"1"
		"maxchars"		"-1"
		"NumericInputOnly"		"0"
	}
	"LastNameText"
	{
		"ControlName"		"Label"
		"fieldName"		"LastNameText"
		"xpos"		"19"
		"ypos"		"148"
		"wide"		"104"
		"tall"		"24"
		"autoResize"		"0"
		"pinCorner"		"0"
		"visible"		"1"
		"enabled"		"1"
		"tabPosition"		"0"
		"labelText"		"&Last Name"
		"textAlignment"		"west"
		"associate"		"LastNameEdit"
		"dulltext"		"0"
		"brighttext"		"0"
	}
	"FirstNameText"
	{
		"ControlName"		"Label"
		"fieldName"		"FirstNameText"
		"xpos"		"25"
		"ypos"		"97"
		"wide"		"80"
		"tall"		"24"
		"autoResize"		"0"
		"pinCorner"		"0"
		"visible"		"1"
		"enabled"		"1"
		"tabPosition"		"0"
		"labelText"		"&First Name"
		"textAlignment"		"west"
		"associate"		"FirstNameEdit"
		"dulltext"		"0"
		"brighttext"		"0"
	}
	"LoginIDText"
	{
		"ControlName"		"Label"
		"fieldName"		"LoginIDText"
		"xpos"		"19"
		"ypos"		"53"
		"wide"		"111"
		"tall"		"24"
		"autoResize"		"0"
		"pinCorner"		"0"
		"visible"		"1"
		"enabled"		"1"
		"tabPosition"		"0"
		"labelText"		"#TrackerUI_LoginID"
		"textAlignment"		"west"
		"associate"		"LoginIDEdit"
		"dulltext"		"0"
		"brighttext"		"0"
	}
}
