"Friends/SubPanelOptionsConnection.res"
{
	"InternetSpeed"
	{
		"ControlName"		"ComboBox"
		"fieldName"		"InternetSpeed"
		"xpos"		"173"
		"ypos"		"81"
		"wide"		"128"
		"tall"		"24"
		"autoResize"		"0"
		"pinCorner"		"0"
		"visible"		"1"
		"enabled"		"1"
		"tabPosition"		"0"
		"textHidden"		"0"
		"editable"		"0"
		"maxchars"		"-1"
		"NumericInputOnly"		"0"
	}
}
